[
  {
    "salle1Mob": [
      {
        "type": "electro",
        "imageName": "electro_slime",
        "nameMob": "ÉlectroBlob",
        "level": "25"
      },
      {
        "type": "electro",
        "imageName": "large_electro_slime",
        "nameMob": "ÉlectroBlob géant",
        "level": "25"
      },
      {
        "type": "electro",
        "imageName": "mutant_electro_slime",
        "nameMob": "ÉlectroBlob mutant",
        "level": "25"
      }
    ],
    "salle2Mob": [
      {
        "type": "none",
        "imageName": "brutocollinus",
        "nameMob": "Guerrier Brutocollinus",
        "level": "25"
      },
      {
        "type": "none",
        "imageName": "brutocollinus",
        "nameMob": "Brutocollinus avec bouclier en bois",
        "level": "25"
      },
      {
        "type": "none",
        "imageName": "brutocollinus",
        "nameMob": "Archer Brutocollinus",
        "level": "25"
      },
      {
        "type": "none",
        "imageName": "brutocollinus_pyro",
        "nameMob": "Grenadier Brutocollinus",
        "level": "25"
      },
      {
        "type": "none",
        "imageName": "brutocollinus_big",
        "nameMob": "Brutoviandu avec bouclier en bois",
        "level": "25"
      },
      {
        "type": "none",
        "imageName": "brutocollinus_big",
        "nameMob": "Brutocollinus avec hache Pyro",
        "level": "25"
      }
    ],
    "salle3Mob": [
      {
        "type": "none",
        "imageName": "brutocollinus",
        "nameMob": "Archer Brutocollinus",
        "level": "25"
      },
      {
        "type": "none",
        "imageName": "brutocollinus_big",
        "nameMob": "Brutoviandu avec bouclier en bois",
        "level": "25"
      },
      {
        "type": "electro",
        "imageName": "large_electro_slime",
        "nameMob": "ÉlectroBlob géant",
        "level": "25"
      },
      {
        "type": "electro",
        "imageName": "mutant_electro_slime",
        "nameMob": "ÉlectroBlob mutant",
        "level": "25"
      },
      {
        "type": "electro",
        "imageName": "electroluciolle",
        "nameMob": "Mage éléctroluciolle des Fatui",
        "level": "25"
      }
    ],
    "PersoRecommande": [
      {
        "type": "pyro",
        "name": "klee",
        "star": "5"
      },
      {
        "type": "pyro",
        "name": "bennett",
        "star": "4"
      },
      {
        "type": "pyro",
        "name": "xinyan",
        "star": "4"
      },
      {
        "type": "cryo",
        "name": "diona",
        "star": "4"
      }
    ]
  }
]
